%YAML 1.1
%TAG !u! tag:unity3d.com,2011:
--- !u!1045 &1
EditorBuildSettings:
  m_ObjectHideFlags: 0
  serializedVersion: 2
  m_Scenes:
  - enabled: 1
    path: Assets/Scenes/Title.unity
    guid: 63a1815e55191694caa0503fdbbdfb33
  - enabled: 1
    path: Assets/Scenes/MainStage.unity
    guid: 9fc0d4010bbf28b4594072e72b8655ab
  - enabled: 1
    path: Assets/Scenes/MiniGameScenes/MiniGameA.unity
    guid: 3bf1a8f9ffa128c4a9c6987d7679241c
  - enabled: 1
    path: Assets/Scenes/MiniGameScenes/MiniGameB.unity
    guid: a79c514163f2abf44b2820ed8e704aab
  - enabled: 1
    path: Assets/Scenes/MiniGameScenes/MiniGameC.unity
    guid: aaedebab6ec049a4ebcd0cb8d784e25d
  - enabled: 1
    path: Assets/Scenes/MiniGameScenes/MiniGameD.unity
    guid: ba1a1a8722e5ce742989057ecf9385a6
  - enabled: 1
    path: Assets/Scenes/MiniGameScenes/MiniGameE.unity
    guid: 6a616d26fe1ef344fae6d8f13f2d92cf
  - enabled: 1
    path: Assets/Scenes/MiniGameScenes/MiniGameF.unity
    guid: ce558ea9a384d3d49b08fee4b84d51b7
  - enabled: 1
    path: Assets/Scenes/MiniGameScenes/MiniGameG.unity
    guid: 25e4206b8b728bb419065283a3cd84fe
  - enabled: 1
    path: Assets/Scenes/MiniGameScenes/MiniGameH.unity
    guid: b080af41f82516f499fccb28e0d2d6d5
  - enabled: 1
    path: Assets/Scenes/MiniGameScenes/MiniGameI.unity
    guid: f623495b405d28d4da6292288803bf56
  - enabled: 1
    path: Assets/Scenes/MiniGameScenes/MiniGameJ.unity
    guid: 29ae0e065ddd4c644a88f8c00ee0fc8c
  - enabled: 1
    path: Assets/Scenes/MiniGameScenes/MiniGameK.unity
    guid: c9dccba403fab3147b53deef928a6099
  - enabled: 1
    path: Assets/Scenes/MiniGameScenes/MiniGameL.unity
    guid: f7d1177a022feb04f997b67e9bebe210
  - enabled: 1
    path: Assets/Scenes/MiniGameScenes/MiniGameM.unity
    guid: 1e2faed3338c5ad41bfd2d5244c6d4d9
  - enabled: 1
    path: Assets/Scenes/MiniGameScenes/MiniGameN.unity
    guid: 4dc6a5ba175edb54ea3e3c4bac4c5aa9
  - enabled: 1
    path: Assets/Scenes/MiniGameScenes/MiniGameO.unity
    guid: 5c430734e9016394eb1fdfb0f430d39f
  - enabled: 1
    path: Assets/Scenes/MiniGameScenes/MiniGameP.unity
    guid: 0bde20603eb827d459e30413b674018c
  - enabled: 1
    path: Assets/Scenes/MiniGameScenes/MiniGameQ.unity
    guid: f45a6b6ff133aee4e901b8bbde65f2c2
  - enabled: 1
    path: Assets/Scenes/MiniGameScenes/MiniGameR.unity
    guid: a169ac04a918ced4e982c1ad15e62306
  - enabled: 1
    path: Assets/Scenes/MiniGameScenes/MiniGameS.unity
    guid: 335b9b264561e264dbff9d67457241b4
  - enabled: 1
    path: Assets/Scenes/MiniGameScenes/MiniGameT.unity
    guid: b5d9ff6a4c7b2824aaafc274a0fc1c04
  - enabled: 1
    path: Assets/Scenes/MiniGameScenes/MiniGameU.unity
    guid: 84503114f64e49648ae4a4bd6a9ed7c9
  - enabled: 1
    path: Assets/Scenes/MiniGameScenes/MiniGameV.unity
    guid: c03cb8e4244c41e409ae73afcb1ce9d4
  - enabled: 1
    path: Assets/Scenes/MiniGameScenes/MiniGameW.unity
    guid: b0c23f224407d2f4a9e47c4724850aa7
  - enabled: 1
    path: Assets/Scenes/MiniGameScenes/MiniGameX.unity
    guid: 27b425a1fec7ebe45be487f70ccb0630
  - enabled: 1
    path: Assets/Scenes/MiniGameScenes/MiniGameY.unity
    guid: a2f647a8a43ed9e498b3a97c0e008816
  - enabled: 1
    path: Assets/Scenes/MiniGameScenes/MiniGameZ.unity
    guid: fed24b010fbe78942ad9e63b4d99e083
  m_configObjects: {}
